{
	"id": "house",
	"health": 100,
	"spritesheet": {
		"file_path": "assets/house.png",
		"sprite_size": {
			"x": 64,
			"y": 64
		},
		"occupy_tiles": {
			"x": 1,
			"y": 1
		},
		"animations": [
			{
				"id": "default",
				"position": {
					"x": 0,
					"y": 0
				},
				"frames": 1,
				"fps": 1.0
			}
		]
	}
}
